%YAML 1.1
%TAG !u! tag:unity3d.com,2011:
--- !u!1045 &1
EditorBuildSettings:
  m_ObjectHideFlags: 0
  serializedVersion: 2
  m_Scenes:
  - enabled: 1
    path: Assets/Scenes/Game.unity
    guid: 62aa702e0d8bd49d08a0970e740aeced
  - enabled: 1
    path: Assets/Erziehungsmaschine/Constructions/Scenes/Constructions.unity
    guid: 535be95a1b6dda149aaefe6dace21fab
  - enabled: 1
    path: Assets/Erziehungsmaschine/Flow/Scenes/Supervisor.unity
    guid: 4a662985fb69c6b49b3d0efdea93b76e
  - enabled: 1
    path: Assets/Erziehungsmaschine/Level/Scenes/Level.unity
    guid: 18157e3e3d33d60469cac33ccdc0f456
